<svg width="12" height="14" viewBox="0 0 12 14" fill="none" xmlns="http://www.w3.org/2000/svg">
<path d="M3.95837 5.26709C4.01532 5.26696 4.07174 5.27786 4.12439 5.29956C4.17704 5.32126 4.22482 5.35333 4.26514 5.39355C4.30545 5.43378 4.33743 5.48158 4.35925 5.53418C4.38108 5.58678 4.39233 5.643 4.39233 5.69995V10.8999C4.39233 11.0149 4.34668 11.1252 4.26538 11.2065C4.18408 11.2878 4.07383 11.3335 3.95886 11.3335C3.84389 11.3335 3.73364 11.2878 3.65234 11.2065C3.57105 11.1252 3.52539 11.0149 3.52539 10.8999V5.69995C3.52539 5.58511 3.57102 5.475 3.65222 5.3938C3.73342 5.3126 3.84354 5.26709 3.95837 5.26709ZM6.12537 5.26709C6.24021 5.26709 6.35032 5.3126 6.43152 5.3938C6.51272 5.475 6.55835 5.58511 6.55835 5.69995V10.8999C6.55835 11.0147 6.51272 11.1251 6.43152 11.2063C6.35032 11.2875 6.24021 11.333 6.12537 11.333C6.01053 11.333 5.90042 11.2875 5.81921 11.2063C5.73801 11.1251 5.69238 11.0147 5.69238 10.8999V5.69995C5.69238 5.58511 5.73801 5.475 5.81921 5.3938C5.90042 5.3126 6.01053 5.26709 6.12537 5.26709ZM8.72534 5.69995C8.72534 5.58498 8.67969 5.47485 8.59839 5.39355C8.51709 5.31226 8.40684 5.2666 8.29187 5.2666C8.1769 5.2666 8.06665 5.31226 7.98535 5.39355C7.90405 5.47485 7.8584 5.58498 7.8584 5.69995V10.8999C7.8584 11.0149 7.90405 11.1252 7.98535 11.2065C8.06665 11.2878 8.1769 11.3335 8.29187 11.3335C8.40684 11.3335 8.51709 11.2878 8.59839 11.2065C8.67969 11.1252 8.72534 11.0149 8.72534 10.8999V5.69995Z" fill="white"/>
<path fill-rule="evenodd" clip-rule="evenodd" d="M11.7583 3.1001C11.7583 3.32987 11.667 3.55008 11.5046 3.71265C11.3423 3.87521 11.122 3.96678 10.8922 3.96704H10.4583V11.7671C10.4583 11.9947 10.4134 12.2199 10.3263 12.4302C10.2392 12.6404 10.1116 12.8315 9.95068 12.9924C9.78976 13.1534 9.59869 13.2811 9.38843 13.3682C9.17817 13.4553 8.9528 13.5 8.72522 13.5H3.52527C3.29769 13.5 3.07232 13.4553 2.86206 13.3682C2.6518 13.2811 2.46073 13.1534 2.2998 12.9924C2.13888 12.8315 2.01129 12.6404 1.92419 12.4302C1.8371 12.2199 1.79224 11.9947 1.79224 11.7671V3.96704H1.35828C1.12851 3.96678 0.908227 3.87521 0.74585 3.71265C0.583472 3.55008 0.492187 3.32987 0.492188 3.1001V2.23291C0.492188 2.00323 0.583443 1.78301 0.74585 1.62061C0.908256 1.4582 1.1286 1.36694 1.35828 1.36694H4.39221C4.39221 1.13717 4.4835 0.91696 4.64587 0.754395C4.80825 0.591829 5.02853 0.500265 5.2583 0.5H6.99219C7.22196 0.500265 7.44224 0.591829 7.60461 0.754395C7.76699 0.91696 7.85828 1.13717 7.85828 1.36694H10.8922C11.1219 1.36694 11.3422 1.4582 11.5046 1.62061C11.667 1.78301 11.7583 2.00323 11.7583 2.23291V3.1001ZM2.7583 3.96704L2.6582 4.01807V11.7671C2.65847 11.9969 2.74991 12.217 2.91248 12.3794C3.07504 12.5418 3.2955 12.6331 3.52527 12.6331H8.72522C8.95499 12.6331 9.17545 12.5418 9.33801 12.3794C9.50058 12.217 9.59202 11.9969 9.59229 11.7671V4.01807L9.49219 3.96704H2.7583ZM1.35828 3.1001V2.23291H10.8922V3.1001H1.35828Z" fill="white"/>
</svg>
