<svg width="14" height="14" viewBox="0 0 14 14" fill="none" xmlns="http://www.w3.org/2000/svg">
<path d="M13.4344 1.79102C13.4761 1.83254 13.5091 1.88197 13.5316 1.93628C13.5542 1.99059 13.5658 2.04862 13.5658 2.10742C13.5658 2.16622 13.5542 2.2245 13.5316 2.27881C13.5091 2.33312 13.4761 2.38255 13.4344 2.42407L12.4994 3.36011L10.7064 1.56689L11.6414 0.631104C11.683 0.589438 11.7325 0.556244 11.7869 0.533691C11.8413 0.511139 11.8995 0.499512 11.9584 0.499512C12.0173 0.499512 12.0756 0.511139 12.13 0.533691C12.1844 0.556244 12.2338 0.589438 12.2754 0.631104L13.4344 1.79004V1.79102ZM11.8663 3.99097L10.0724 2.198L3.96436 8.30688C3.91517 8.35636 3.87828 8.41665 3.85645 8.48291L3.1344 10.647C3.11573 10.7033 3.12022 10.7648 3.14685 10.8179C3.17348 10.8709 3.22003 10.9112 3.27637 10.9299C3.32233 10.946 3.37237 10.946 3.41834 10.9299L5.5824 10.209C5.64833 10.1871 5.7083 10.1502 5.75745 10.1011L11.8663 3.99194V3.99097Z" fill="#8C8C8C"/>
<path fill-rule="evenodd" clip-rule="evenodd" d="M0.433594 12.155C0.433594 12.5117 0.575278 12.8537 0.827515 13.106C1.07975 13.3582 1.42197 13.5 1.77869 13.5H11.6406C11.9972 13.4997 12.339 13.3579 12.5911 13.1057C12.8431 12.8535 12.9846 12.5116 12.9846 12.155V6.77588C12.9846 6.65653 12.9372 6.54216 12.8528 6.45776C12.7684 6.37337 12.654 6.32593 12.5347 6.32593C12.4153 6.32593 12.3008 6.37337 12.2164 6.45776C12.132 6.54216 12.0846 6.65653 12.0846 6.77588V12.155C12.0846 12.2738 12.0374 12.3877 11.9534 12.4717C11.8694 12.5557 11.7554 12.603 11.6366 12.603H1.77466C1.71579 12.6032 1.65744 12.5916 1.60303 12.5691C1.54861 12.5466 1.49915 12.5138 1.45752 12.4722C1.41589 12.4305 1.38294 12.3811 1.36047 12.3267C1.33801 12.2722 1.32653 12.2139 1.32666 12.155V2.29297C1.32666 2.17415 1.37387 2.06033 1.45789 1.97632C1.5419 1.8923 1.65584 1.84497 1.77466 1.84497H7.60168C7.72103 1.84497 7.83541 1.79753 7.9198 1.71313C8.00419 1.62874 8.05164 1.51437 8.05164 1.39502C8.05164 1.27567 8.00419 1.1613 7.9198 1.0769C7.83541 0.992513 7.72103 0.945068 7.60168 0.945068H1.77466C1.41812 0.945068 1.07618 1.0866 0.823975 1.33862C0.571767 1.59064 0.429953 1.93252 0.429688 2.28906L0.433594 12.155Z" fill="#8C8C8C"/>
</svg>
