<?xml version="1.0" encoding="utf-8"?>
<!-- Generator: Adobe Illustrator 24.0.0, SVG Export Plug-In . SVG Version: 6.00 Build 0)  -->
<svg version="1.1" id="Layer_1" xmlns="http://www.w3.org/2000/svg" xmlns:xlink="http://www.w3.org/1999/xlink" x="0px" y="0px"
	 viewBox="0 0 17.46 16" style="enable-background:new 0 0 17.46 16;" xml:space="preserve">
<style type="text/css">
	.st0{fill:#4B4B4B;}
</style>
<g>
	<g>
		<g>
			<g>
				<circle class="st0" cx="7.64" cy="14.91" r="1.09"/>
				<circle class="st0" cx="13.45" cy="14.91" r="1.09"/>
			</g>
			<path class="st0" d="M15.46,12H4.55C4.24,12,4,11.76,4,11.46c0-0.3,0.24-0.55,0.55-0.55h1.09h0h9.82c0.26,0,0.48-0.18,0.53-0.43
				l1.45-6.91c0.03-0.16-0.01-0.33-0.11-0.46c-0.1-0.13-0.26-0.2-0.42-0.2H4.62L4.35,1.6C4.16,0.68,3.34,0.01,2.4,0.01L0.55,0
				c0,0,0,0,0,0C0.25,0,0,0.24,0,0.54c0,0.3,0.24,0.55,0.54,0.55L2.4,1.1c0.43,0,0.8,0.31,0.89,0.72l0.37,1.75l1.32,6.25H4.55
				c-0.9,0-1.64,0.73-1.64,1.64s0.73,1.64,1.64,1.64h10.91c0.3,0,0.55-0.24,0.55-0.55C16,12.24,15.76,12,15.46,12z M4.92,4.23
				C4.89,4.12,4.98,4.02,5.09,4.02h10.78c0.11,0,0.19,0.1,0.17,0.21l-1.06,5.44C14.96,9.74,14.89,9.8,14.8,9.8H6.21
				c-0.08,0-0.15-0.06-0.17-0.14L4.92,4.23z"/>
		</g>
	</g>
</g>
</svg>
