<svg width="16" height="21" viewBox="0 0 16 21" fill="none" xmlns="http://www.w3.org/2000/svg">
<path d="M10.362 0.546889H1.20001C0.881752 0.546889 0.576545 0.673316 0.351501 0.89836C0.126458 1.1234 0 1.42864 0 1.7469V19.2999C0 19.6181 0.126458 19.9234 0.351501 20.1484C0.576545 20.3735 0.881752 20.4999 1.20001 20.4999H13.859C14.1773 20.4999 14.4825 20.3735 14.7075 20.1484C14.9326 19.9234 15.059 19.6181 15.059 19.2999V15.5309C15.059 15.3718 14.9958 15.2192 14.8832 15.1066C14.7707 14.9941 14.6181 14.9309 14.459 14.9309C14.2999 14.9309 14.1473 14.9941 14.0347 15.1066C13.9222 15.2192 13.859 15.3718 13.859 15.5309V19.1009C13.859 19.1539 13.8379 19.2048 13.8004 19.2423C13.7629 19.2798 13.712 19.3009 13.659 19.3009H1.40002C1.34698 19.3009 1.29611 19.2798 1.25861 19.2423C1.2211 19.2048 1.20001 19.1539 1.20001 19.1009V1.95088C1.20001 1.89784 1.2211 1.84697 1.25861 1.80946C1.29611 1.77196 1.34698 1.7509 1.40002 1.7509H8.836V5.5229C8.836 5.84116 8.96246 6.14637 9.1875 6.37141C9.41254 6.59646 9.71775 6.72288 10.036 6.72288H13.657C13.71 6.72288 13.7609 6.74397 13.7984 6.78148C13.8359 6.81898 13.857 6.86985 13.857 6.9229V9.25389C13.857 9.41302 13.9202 9.56562 14.0327 9.67815C14.1452 9.79067 14.2978 9.8539 14.457 9.8539C14.6161 9.8539 14.7688 9.79067 14.8813 9.67815C14.9938 9.56562 15.057 9.41302 15.057 9.25389V5.24788C15.0581 5.22063 15.0536 5.19347 15.0438 5.16801C15.034 5.14256 15.0191 5.11938 15 5.0999L10.5 0.599898C10.4625 0.565256 10.4131 0.546283 10.362 0.546889ZM10.038 1.9189L13.638 5.5189H10.038V1.9189Z" fill="#0050A6"/>
<path d="M11.8833 11.778H5.11932L7.88129 9.01602C7.99387 8.90344 8.05713 8.75074 8.05713 8.59152C8.05713 8.4323 7.99387 8.27961 7.88129 8.16702C7.7687 8.05444 7.61601 7.99121 7.45679 7.99121C7.29757 7.99121 7.14487 8.05444 7.03229 8.16702L3.2663 11.934C3.15394 12.0465 3.09082 12.199 3.09082 12.358C3.09082 12.517 3.15394 12.6695 3.2663 12.782L7.0733 16.589C7.18589 16.7016 7.33858 16.7649 7.4978 16.7649C7.65702 16.7649 7.80972 16.7016 7.9223 16.589C8.03489 16.4764 8.09814 16.3237 8.09814 16.1645C8.09814 16.0053 8.03489 15.8526 7.9223 15.74L5.1593 12.978H11.8833C12.0424 12.978 12.195 12.9148 12.3076 12.8023C12.4201 12.6898 12.4833 12.5372 12.4833 12.378C12.4833 12.2189 12.4201 12.0663 12.3076 11.9538C12.195 11.8412 12.0424 11.778 11.8833 11.778Z" fill="#0050A6"/>
</svg>
