<?xml version="1.0" encoding="utf-8"?>
<!-- Generator: Adobe Illustrator 24.0.0, SVG Export Plug-In . SVG Version: 6.00 Build 0)  -->
<svg version="1.1" id="Layer_1" xmlns="http://www.w3.org/2000/svg" xmlns:xlink="http://www.w3.org/1999/xlink" x="0px" y="0px"
	 viewBox="0 0 24.03 24" style="enable-background:new 0 0 24.03 24;" xml:space="preserve">
<style type="text/css">
	.st0{fill:#8C8C8C;}
	.st1{fill:#9DCDFF;}
	.st2{fill:#0050A6;}
</style>
<g>
	<path class="st2" d="M9.77,14.24H3.51c-0.39,0-0.7,0.31-0.7,0.7v3.57c0,0.39,0.31,0.7,0.7,0.7h6.26c0.39,0,0.7-0.32,0.7-0.7v-3.57
		C10.47,14.56,10.16,14.24,9.77,14.24z M9.07,17.81H4.21v-2.16h4.85V17.81z"/>
	<path class="st2" d="M9.78,11.44H3.51c-0.39,0-0.7,0.31-0.7,0.7s0.31,0.7,0.7,0.7h6.27c0.39,0,0.7-0.31,0.7-0.7
		S10.17,11.44,9.78,11.44z"/>
	<path class="st2" d="M23.05,15.47V0.7c0-0.39-0.32-0.7-0.7-0.7H0.7C0.31,0,0,0.31,0,0.7v20.62c0,0.39,0.31,0.7,0.7,0.7h13.72
		c1,1.21,2.5,1.97,4.18,1.97c2.99,0,5.42-2.43,5.42-5.42C24.03,17.42,23.66,16.35,23.05,15.47L23.05,15.47z M21.64,4.77h-6.91V1.41
		h6.91V4.77z M13.32,1.41v3.36H9.63V1.41H13.32z M9.63,6.18h3.69v2.18H9.63V6.18z M8.22,1.41v3.36H1.41V1.41H8.22z M1.41,20.62V6.18
		h6.82v2.89c0,0.39,0.31,0.7,0.7,0.7h5.1c0.39,0,0.7-0.31,0.7-0.7V6.18h6.91v7.91c-0.87-0.59-1.91-0.93-3.03-0.93
		c-2.99,0-5.42,2.43-5.42,5.42c0,0.72,0.14,1.41,0.4,2.04H1.41z M18.61,22.59c-2.21,0-4.01-1.8-4.01-4.01s1.8-4.01,4.01-4.01
		s4.01,1.8,4.01,4.01S20.82,22.59,18.61,22.59z"/>
	<path class="st2" d="M20.03,16.86l-1.94,1.94l-0.91-0.91c-0.27-0.27-0.72-0.27-0.99,0c-0.27,0.27-0.27,0.72,0,0.99l1.41,1.41
		c0.23,0.23,0.7,0.3,0.99,0l2.43-2.43c0.27-0.27,0.27-0.72,0-0.99C20.75,16.59,20.31,16.59,20.03,16.86L20.03,16.86z"/>
</g>
</svg>
