<?xml version="1.0" encoding="utf-8"?>
<!-- Generator: Adobe Illustrator 24.0.0, SVG Export Plug-In . SVG Version: 6.00 Build 0)  -->
<svg version="1.1" id="Layer_1" xmlns="http://www.w3.org/2000/svg" xmlns:xlink="http://www.w3.org/1999/xlink" x="0px" y="0px"
	 viewBox="0 0 36 36" style="enable-background:new 0 0 36 36;" xml:space="preserve">
<style type="text/css">
	.st0{fill:#FFF486;}
	.st1{fill:#FFDC5A;}
	.st2{fill:#DB8E01;}
	.st3{fill:#903E16;}
	.st4{fill:#FFDF60;}
	.st5{fill:#CE8912;}
	.st6{opacity:0.82;}
	.st7{fill:#F9BB29;}
	.st8{fill:url(#SVGID_1_);}
	.st9{opacity:0.46;fill:url(#SVGID_2_);}
	.st10{opacity:0.41;fill:#FCC952;}
	.st11{fill:#A91116;}
	.st12{fill:#FFFFFF;}
	.st13{fill:#F5E6FE;}
	.st14{fill:#BE63F9;}
	.st15{fill:#D9A4FC;}
	.st16{fill:#FFE6E2;}
	.st17{fill:#FD907E;}
	.st18{fill:#FC573B;}
	.st19{fill:#4B4B4B;}
	.st20{fill:#E3F8FA;}
	.st21{fill:#219EBC;}
	.st22{fill:#CEE6FF;}
	.st23{fill:#0050A6;}
	.st24{fill:#238EFF;}
</style>
<g>
	<path class="st13" d="M29.25,36H6.75C3.02,36,0,32.98,0,29.25V6.75C0,3.02,3.02,0,6.75,0h22.5C32.98,0,36,3.02,36,6.75v22.5
		C36,32.98,32.98,36,29.25,36z"/>
	<path class="st14" d="M19.69,9h-8.63C9.92,9,9,9.92,9,11.06v11.62c0,1.14,0.92,2.06,2.06,2.06h5.54l0.17-0.92
		c0.08-0.42,0.27-0.8,0.57-1.1l4.42-4.41v-7.25C21.75,9.92,20.83,9,19.69,9z M12,12h3c0.41,0,0.75,0.34,0.75,0.75
		S15.41,13.5,15,13.5h-3c-0.41,0-0.75-0.34-0.75-0.75S11.59,12,12,12L12,12z M15.75,19.5H12c-0.41,0-0.75-0.34-0.75-0.75
		S11.59,18,12,18h3.75c0.41,0,0.75,0.34,0.75,0.75C16.5,19.16,16.16,19.5,15.75,19.5z M18.75,16.5H12c-0.41,0-0.75-0.34-0.75-0.75
		S11.59,15,12,15h6.75c0.41,0,0.75,0.34,0.75,0.75C19.5,16.16,19.16,16.5,18.75,16.5z"/>
	<path class="st15" d="M18.4,27c-0.15,0-0.29-0.06-0.4-0.16c-0.13-0.13-0.19-0.32-0.16-0.5l0.4-2.25c0.02-0.11,0.07-0.22,0.16-0.3
		l5.57-5.57c0.68-0.69,1.36-0.5,1.72-0.13l0.93,0.93c0.51,0.51,0.51,1.34,0,1.86l-5.57,5.57c-0.08,0.08-0.19,0.14-0.3,0.16
		l-2.25,0.4C18.46,27,18.43,27,18.4,27z M20.65,26.04L20.65,26.04L20.65,26.04z"/>
</g>
</svg>
