<svg width="34" height="25" viewBox="0 0 34 25" fill="none" xmlns="http://www.w3.org/2000/svg">
<path d="M31.406 10.7698H31.0178L29.7979 5.38477C29.7191 5.02713 29.5202 4.70735 29.2341 4.47876C28.948 4.25017 28.592 4.12651 28.2258 4.12866H23.301V2.51685C23.3005 1.91859 23.0626 1.345 22.6396 0.921875C22.2167 0.498749 21.6432 0.26056 21.0449 0.259766H2.927C2.32874 0.26056 1.75521 0.498749 1.33228 0.921875C0.909337 1.345 0.671428 1.91859 0.670898 2.51685V18.3777C0.671692 18.9758 0.909609 19.5493 1.33252 19.9722C1.75543 20.3951 2.32892 20.633 2.927 20.6338H4.75391C4.97555 21.6604 5.54214 22.5799 6.35938 23.2395C7.17661 23.8991 8.19514 24.259 9.24536 24.259C10.2956 24.259 11.3141 23.8991 12.1313 23.2395C12.9486 22.5799 13.5152 21.6604 13.7368 20.6338H23.0168C23.2391 21.6682 23.8116 22.5942 24.6377 23.2554C25.4637 23.9165 26.4928 24.2722 27.5508 24.2625C28.6088 24.2527 29.6311 23.8782 30.4448 23.2019C31.2585 22.5256 31.8137 21.5891 32.0168 20.5508C32.4911 20.418 32.9088 20.1338 33.2065 19.7415C33.5042 19.3492 33.6657 18.8702 33.666 18.3777V13.0259C33.6655 12.4277 33.4276 11.8541 33.0046 11.4312C32.5817 11.0082 32.0081 10.7703 31.4099 10.7698H31.406ZM31.728 13.0259V17.8599C31.3757 17.036 30.79 16.3331 30.0432 15.8379C29.2964 15.3427 28.4212 15.0767 27.5251 15.0728C26.6291 15.0688 25.7513 15.3271 25.0002 15.8157C24.2492 16.3043 23.6574 17.002 23.2979 17.8228V12.7039H31.406C31.4914 12.7039 31.5732 12.7377 31.6335 12.7981C31.6939 12.8585 31.728 12.9405 31.728 13.0259ZM27.968 6.06274L29.0339 10.7698H23.301V6.05981L27.968 6.06274ZM15.168 2.19482V5.68872L12.3469 4.55566C12.1155 4.46333 11.8574 4.46333 11.626 4.55566L8.80591 5.68872V2.19482H15.168ZM2.60596 18.3777V2.51685C2.60596 2.43145 2.63981 2.34945 2.7002 2.28906C2.76058 2.22868 2.84258 2.19482 2.92798 2.19482H6.87085V7.11987C6.87062 7.27823 6.90931 7.43402 6.9834 7.57397C7.05749 7.71393 7.16481 7.83377 7.2959 7.92261C7.42699 8.01145 7.57791 8.06678 7.73535 8.08374C7.8928 8.1007 8.05198 8.07867 8.19897 8.01978L11.9868 6.49878L15.7749 8.01978C15.9218 8.07872 16.0811 8.10069 16.2385 8.08374C16.3959 8.06679 16.5467 8.01147 16.6777 7.92261C16.8088 7.83374 16.916 7.71395 16.99 7.57397C17.064 7.434 17.1022 7.27819 17.1018 7.11987V2.19482H21.0459C21.1313 2.19482 21.2133 2.22868 21.2737 2.28906C21.3341 2.34945 21.3679 2.43145 21.3679 2.51685V18.6997H13.738C13.5173 17.6724 12.9509 16.7517 12.1335 16.0913C11.3162 15.4309 10.2971 15.0708 9.24634 15.0708C8.19555 15.0708 7.17672 15.4309 6.35938 16.0913C5.54203 16.7517 4.97561 17.6724 4.75488 18.6997H2.92798C2.88527 18.7004 2.84287 18.6926 2.80322 18.6768C2.76358 18.6609 2.72745 18.6371 2.69702 18.6072C2.66659 18.5772 2.64247 18.5416 2.62598 18.5022C2.60948 18.4628 2.60082 18.4204 2.60083 18.3777H2.60596ZM9.24683 22.3257C8.72064 22.3259 8.20639 22.1701 7.7688 21.8779C7.33121 21.5857 6.99003 21.1702 6.78857 20.6841C6.58712 20.198 6.53436 19.6631 6.63696 19.147C6.73957 18.6309 6.99292 18.157 7.36499 17.7849C7.73706 17.4128 8.21121 17.1595 8.72729 17.0569C9.24338 16.9543 9.77831 17.007 10.2644 17.2085C10.7505 17.4099 11.1658 17.7509 11.458 18.1885C11.7502 18.6261 11.9062 19.1406 11.906 19.6667C11.9049 20.3716 11.6244 21.0475 11.126 21.5459C10.6275 22.0443 9.95171 22.3246 9.24683 22.3257ZM27.509 22.3257C26.9409 22.3257 26.3876 22.1437 25.9304 21.8064C25.4732 21.4691 25.1362 20.9945 24.9685 20.4517C24.8008 19.9089 24.8113 19.3266 24.9985 18.7903C25.1858 18.2539 25.5402 17.7916 26.0093 17.4712C26.4784 17.1507 27.0377 16.9889 27.6055 17.0095C28.1732 17.0301 28.7194 17.2321 29.1641 17.5857C29.6087 17.9393 29.9285 18.4261 30.0764 18.9746C30.2243 19.5231 30.1924 20.1046 29.9858 20.6338C29.7902 21.1333 29.4485 21.5621 29.0051 21.864C28.5617 22.1659 28.0374 22.3268 27.501 22.3257H27.509Z" fill="#0050A6"/>
<path d="M14.51 11.9592H18.425C18.6815 11.9592 18.9273 11.8574 19.1086 11.676C19.29 11.4947 19.3918 11.2487 19.3918 10.9922C19.3918 10.7357 19.29 10.4899 19.1086 10.3086C18.9273 10.1272 18.6815 10.0254 18.425 10.0254H14.51C14.2535 10.0254 14.0075 10.1272 13.8262 10.3086C13.6448 10.4899 13.543 10.7357 13.543 10.9922C13.543 11.2487 13.6448 11.4947 13.8262 11.676C14.0075 11.8574 14.2535 11.9592 14.51 11.9592Z" fill="#0050A6"/>
<path d="M18.4253 14.4258H15.7952C15.5387 14.4258 15.2927 14.5276 15.1113 14.709C14.93 14.8903 14.8281 15.1364 14.8281 15.3928C14.8281 15.6493 14.93 15.8951 15.1113 16.0764C15.2927 16.2578 15.5387 16.3599 15.7952 16.3599H18.4253C18.6818 16.3599 18.9275 16.2578 19.1089 16.0764C19.2902 15.8951 19.3921 15.6493 19.3921 15.3928C19.3921 15.1364 19.2902 14.8903 19.1089 14.709C18.9275 14.5276 18.6818 14.4258 18.4253 14.4258Z" fill="#0050A6"/>
</svg>
