<?xml version="1.0" encoding="utf-8"?>
<!-- Generator: Adobe Illustrator 24.0.0, SVG Export Plug-In . SVG Version: 6.00 Build 0)  -->
<svg version="1.1" id="Layer_1" xmlns="http://www.w3.org/2000/svg" xmlns:xlink="http://www.w3.org/1999/xlink" x="0px" y="0px"
	 viewBox="0 0 32.99 24" style="enable-background:new 0 0 32.99 24;" xml:space="preserve">
<style type="text/css">
	.st0{fill:#8C8C8C;}
	.st1{fill:#9DCDFF;}
	.st2{fill:#0050A6;}
</style>
<g>
	<g>
		<path class="st1" d="M30.74,10.51h-0.39l-1.22-5.38c-0.17-0.74-0.81-1.26-1.57-1.26h-4.93V2.26c0-1.24-1.01-2.26-2.26-2.26
			C19.61,0,3.02,0,2.26,0C1.01,0,0,1.01,0,2.26v15.86c0,1.24,1.01,2.26,2.26,2.26h1.83C4.53,22.44,6.37,24,8.58,24
			s4.05-1.56,4.49-3.63h9.28c0.45,2.07,2.29,3.63,4.49,3.63c2.23,0,4.1-1.6,4.51-3.71c0.95-0.27,1.65-1.14,1.65-2.17v-5.35
			C32.99,11.52,31.98,10.51,30.74,10.51L30.74,10.51z M31.06,12.77v4.83c-0.7-1.64-2.33-2.79-4.22-2.79c-1.88,0-3.5,1.13-4.21,2.75
			v-5.12h8.11C30.92,12.44,31.06,12.59,31.06,12.77z M27.3,5.8l1.07,4.71h-5.74V5.8H27.3z M14.5,1.93v3.49L11.68,4.3
			c-0.23-0.09-0.49-0.09-0.72,0L8.13,5.43V1.93L14.5,1.93z M1.93,18.12V2.26c0-0.18,0.14-0.32,0.32-0.32H6.2v4.93
			c0,0.68,0.69,1.15,1.33,0.9l3.79-1.52l3.79,1.52c0.64,0.26,1.33-0.22,1.33-0.9V1.93h3.94c0.18,0,0.32,0.14,0.32,0.32v16.18h-7.63
			c-0.45-2.07-2.29-3.63-4.49-3.63s-4.05,1.56-4.49,3.63H2.26C2.08,18.44,1.93,18.29,1.93,18.12z M8.58,22.07
			c-1.86,0-3.16-1.87-2.48-3.63c1.06-2.71,5.14-1.98,5.14,0.97C11.23,20.88,10.04,22.07,8.58,22.07L8.58,22.07z M26.84,22.07
			c-1.87,0-3.16-1.89-2.48-3.63c0.39-0.99,1.35-1.69,2.48-1.69c1.87,0,3.16,1.89,2.48,3.63C28.93,21.36,27.96,22.07,26.84,22.07z"/>
	</g>
	<g>
		<path class="st1" d="M13.84,11.7h3.92c0.53,0,0.97-0.43,0.97-0.97s-0.43-0.97-0.97-0.97h-3.92c-0.53,0-0.97,0.43-0.97,0.97
			S13.31,11.7,13.84,11.7L13.84,11.7z"/>
	</g>
	<g>
		<path class="st1" d="M17.76,14.17h-2.63c-0.53,0-0.97,0.43-0.97,0.97s0.43,0.97,0.97,0.97h2.63c0.53,0,0.97-0.43,0.97-0.97
			S18.29,14.17,17.76,14.17z"/>
	</g>
</g>
</svg>
