<svg width="27" height="17" viewBox="0 0 27 17" fill="none" xmlns="http://www.w3.org/2000/svg">
<path d="M13.4722 11.9516C14.1051 11.9516 14.7238 11.7639 15.25 11.4123C15.7762 11.0607 16.1865 10.561 16.4287 9.97628C16.6709 9.39155 16.7343 8.74814 16.6108 8.1274C16.4874 7.50666 16.1829 6.9365 15.7354 6.48897C15.2878 6.04144 14.7174 5.73671 14.0967 5.61324C13.4759 5.48977 12.8328 5.55317 12.248 5.79537C11.6633 6.03757 11.1631 6.4476 10.8115 6.97383C10.4599 7.50007 10.2725 8.11877 10.2725 8.75167C10.2725 9.60036 10.6094 10.4142 11.2095 11.0144C11.8096 11.6145 12.6235 11.9516 13.4722 11.9516Z" fill="#0050A6"/>
<path d="M0.671875 2.35205C0.671875 1.9277 0.840567 1.52076 1.14062 1.2207C1.44068 0.920645 1.84763 0.751953 2.27197 0.751953H24.6719C25.0962 0.751953 25.5032 0.920645 25.8032 1.2207C26.1033 1.52076 26.272 1.9277 26.272 2.35205V15.1521C26.272 15.5764 26.1033 15.9834 25.8032 16.2834C25.5032 16.5835 25.0962 16.752 24.6719 16.752H2.27197C1.84763 16.752 1.44068 16.5835 1.14062 16.2834C0.840567 15.9834 0.671875 15.5764 0.671875 15.1521V2.35205ZM5.47168 2.35205C5.47168 3.20074 5.13478 4.01463 4.53467 4.61475C3.93455 5.21486 3.12067 5.552 2.27197 5.552V11.9519C3.12067 11.9519 3.93455 12.289 4.53467 12.8892C5.13478 13.4893 5.47168 14.3034 5.47168 15.1521H21.4717C21.4717 14.3034 21.8091 13.4893 22.4092 12.8892C23.0093 12.289 23.8232 11.9519 24.6719 11.9519V5.552C23.8232 5.552 23.0093 5.21486 22.4092 4.61475C21.8091 4.01463 21.4717 3.20074 21.4717 2.35205H5.47168Z" fill="#0050A6"/>
</svg>
