<svg width="22" height="21" viewBox="0 0 22 21" fill="none" xmlns="http://www.w3.org/2000/svg">
<path d="M19.4103 15.522H5.77319C5.59697 15.5152 5.43028 15.4405 5.30798 15.3134C5.18569 15.1863 5.11731 15.0168 5.11731 14.8405C5.11731 14.6641 5.18569 14.4946 5.30798 14.3675C5.43028 14.2405 5.59697 14.1657 5.77319 14.159H19.4103C19.5667 14.1587 19.7183 14.1047 19.8397 14.006C19.9611 13.9074 20.045 13.77 20.0773 13.617L21.8953 4.98097C21.9161 4.88173 21.9145 4.7791 21.8906 4.68054C21.8668 4.58199 21.8212 4.48998 21.7573 4.41124C21.6934 4.3325 21.6128 4.269 21.5212 4.22536C21.4297 4.18172 21.3297 4.15904 21.2283 4.15897H5.87219L5.52722 2.51697C5.4072 1.95861 5.10054 1.45781 4.65771 1.09715C4.21489 0.736491 3.66228 0.537499 3.09119 0.532974L0.775269 0.521973C0.594524 0.521973 0.421141 0.593767 0.293335 0.721573C0.165529 0.849379 0.09375 1.02273 0.09375 1.20348C0.09375 1.38422 0.165529 1.55756 0.293335 1.68536C0.421141 1.81317 0.594524 1.88496 0.775269 1.88496L3.09119 1.89497C3.35032 1.89758 3.60092 1.98801 3.802 2.15149C4.00308 2.31497 4.1428 2.54182 4.19824 2.79497L4.65723 4.97697L6.30225 12.791H5.7782C5.2357 12.791 4.71551 13.0065 4.33191 13.3901C3.9483 13.7737 3.73279 14.294 3.73279 14.8365C3.73279 15.379 3.9483 15.8992 4.33191 16.2829C4.71551 16.6665 5.2357 16.882 5.7782 16.882H19.4153C19.5958 16.882 19.7689 16.8103 19.8965 16.6827C20.0241 16.555 20.0957 16.382 20.0957 16.2015C20.0957 16.021 20.0241 15.8479 19.8965 15.7203C19.7689 15.5927 19.5958 15.521 19.4153 15.521L19.4103 15.522Z" fill="white"/>
<path d="M9.63745 17.7939C9.90722 17.7939 10.171 17.8739 10.3953 18.0238C10.6196 18.1737 10.7945 18.3867 10.8977 18.636C11.0009 18.8852 11.0278 19.1595 10.9752 19.424C10.9226 19.6886 10.7927 19.9317 10.6019 20.1224C10.4112 20.3132 10.1682 20.4431 9.90356 20.4957C9.63897 20.5484 9.36472 20.5213 9.11548 20.4181C8.86624 20.3149 8.6533 20.14 8.50342 19.9157C8.35354 19.6914 8.27344 19.4277 8.27344 19.1579C8.27344 18.7962 8.41717 18.4493 8.67297 18.1935C8.92877 17.9377 9.2757 17.7939 9.63745 17.7939Z" fill="white"/>
<path d="M16.9099 20.5219C17.6632 20.5219 18.2739 19.9113 18.2739 19.1579C18.2739 18.4046 17.6632 17.7939 16.9099 17.7939C16.1566 17.7939 15.5459 18.4046 15.5459 19.1579C15.5459 19.9113 16.1566 20.5219 16.9099 20.5219Z" fill="white"/>
</svg>
