<svg width="36" height="36" viewBox="0 0 36 36" fill="none" xmlns="http://www.w3.org/2000/svg">
<path d="M29.25 36H6.75C4.95979 36 3.24289 35.2888 1.97702 34.0229C0.71115 32.7571 0 31.0402 0 29.25V6.75C0 4.95979 0.71115 3.24292 1.97702 1.97705C3.24289 0.71118 4.95979 0 6.75 0H29.25C31.0402 0 32.7571 0.71118 34.023 1.97705C35.2888 3.24292 36 4.95979 36 6.75V29.25C36 31.0402 35.2888 32.7571 34.023 34.0229C32.7571 35.2888 31.0402 36 29.25 36Z" fill="white"/>
<path d="M19.688 9H11.062C10.7912 8.99974 10.5229 9.0529 10.2726 9.15644C10.0223 9.25997 9.79489 9.41181 9.60336 9.60333C9.41184 9.79486 9.25997 10.0223 9.15643 10.2726C9.0529 10.5229 8.99974 10.7912 9 11.062V22.687C8.99974 22.9579 9.05288 23.2262 9.1564 23.4766C9.25992 23.7269 9.41179 23.9544 9.6033 24.146C9.79482 24.3376 10.0222 24.4896 10.2725 24.5932C10.5228 24.6968 10.7911 24.7501 11.062 24.75H16.6L16.766 23.828C16.8403 23.4121 17.0391 23.0286 17.336 22.728L21.754 18.318V11.065C21.7543 10.7937 21.701 10.525 21.5973 10.2742C21.4935 10.0235 21.3413 9.7957 21.1494 9.60388C20.9575 9.41207 20.7296 9.26 20.4789 9.15637C20.2281 9.05275 19.9593 8.99961 19.688 9ZM12 12H15C15.1989 12 15.3897 12.079 15.5303 12.2197C15.671 12.3603 15.75 12.5511 15.75 12.75C15.75 12.9489 15.671 13.1397 15.5303 13.2803C15.3897 13.421 15.1989 13.5 15 13.5H12C11.8011 13.5 11.6103 13.421 11.4697 13.2803C11.329 13.1397 11.25 12.9489 11.25 12.75C11.25 12.5511 11.329 12.3603 11.4697 12.2197C11.6103 12.079 11.8011 12 12 12ZM15.75 19.5H12C11.8011 19.5 11.6103 19.421 11.4697 19.2803C11.329 19.1397 11.25 18.9489 11.25 18.75C11.25 18.5511 11.329 18.3603 11.4697 18.2197C11.6103 18.079 11.8011 18 12 18H15.75C15.9489 18 16.1397 18.079 16.2803 18.2197C16.421 18.3603 16.5 18.5511 16.5 18.75C16.5 18.9489 16.421 19.1397 16.2803 19.2803C16.1397 19.421 15.9489 19.5 15.75 19.5ZM18.75 16.5H12C11.8011 16.5 11.6103 16.421 11.4697 16.2803C11.329 16.1397 11.25 15.9489 11.25 15.75C11.25 15.5511 11.329 15.3603 11.4697 15.2197C11.6103 15.079 11.8011 15 12 15H18.75C18.9489 15 19.1397 15.079 19.2803 15.2197C19.421 15.3603 19.5 15.5511 19.5 15.75C19.5 15.9489 19.421 16.1397 19.2803 16.2803C19.1397 16.421 18.9489 16.5 18.75 16.5Z" fill="#BE63F9"/>
<path d="M18.4003 27.0003C18.3182 27.0006 18.237 26.9828 18.1625 26.9482C18.088 26.9137 18.0219 26.8632 17.969 26.8004C17.9161 26.7376 17.8776 26.6639 17.8563 26.5846C17.8349 26.5053 17.8312 26.4223 17.8453 26.3413L18.2453 24.0863C18.2654 23.9727 18.3198 23.868 18.4013 23.7864L23.9703 18.2173C24.068 18.0858 24.1927 17.9768 24.3361 17.8976C24.4795 17.8184 24.6382 17.7709 24.8016 17.7583C24.9649 17.7457 25.129 17.7683 25.2828 17.8245C25.4367 17.8808 25.5767 17.9694 25.6933 18.0843L26.6213 19.0133C26.8673 19.2595 27.0055 19.5933 27.0055 19.9413C27.0055 20.2893 26.8673 20.6232 26.6213 20.8694L21.0534 26.4374C20.9724 26.5199 20.8674 26.5749 20.7533 26.5943L18.5003 26.9944C18.4672 26.9989 18.4338 27.0009 18.4003 27.0003Z" fill="#D9A4FC"/>
</svg>
