<svg width="35" height="26" viewBox="0 0 35 26" fill="none" xmlns="http://www.w3.org/2000/svg">
<path fill-rule="evenodd" clip-rule="evenodd" d="M32.3685 11.8705C31.9825 11.8813 31.6035 11.9758 31.2576 12.1475L23.4286 15.9095C23.3458 15.4737 23.1095 15.082 22.7625 14.8057C22.4155 14.5293 21.9809 14.3866 21.5376 14.4035L17.2736 14.5345C16.2708 14.4996 15.2791 14.3125 14.3325 13.9795C13.1306 13.5978 11.8777 13.4005 10.6166 13.3945C8.88658 13.49 7.18194 13.8536 5.5636 14.4725V12.9825C5.5636 12.93 5.55318 12.878 5.53308 12.8294C5.51298 12.7809 5.48355 12.7368 5.44641 12.6997C5.40927 12.6625 5.36518 12.6331 5.31665 12.613C5.26812 12.5929 5.2161 12.5825 5.16357 12.5825H0.874512C0.821983 12.5825 0.769966 12.5929 0.721436 12.613C0.672905 12.6331 0.628818 12.6625 0.591675 12.6997C0.554531 12.7368 0.525107 12.7809 0.505005 12.8294C0.484903 12.878 0.474609 12.93 0.474609 12.9825V24.7545C0.474609 24.8071 0.484903 24.8591 0.505005 24.9076C0.525107 24.9561 0.554531 25.0002 0.591675 25.0374C0.628818 25.0745 0.672905 25.104 0.721436 25.1241C0.769966 25.1442 0.821983 25.1545 0.874512 25.1545H5.16357C5.2161 25.1545 5.26812 25.1442 5.31665 25.1241C5.36518 25.104 5.40927 25.0745 5.44641 25.0374C5.48355 25.0002 5.51298 24.9561 5.53308 24.9076C5.55318 24.8591 5.5636 24.8071 5.5636 24.7545V23.4125C11.0696 22.3465 14.2636 23.9945 18.9636 23.9945C20.0572 23.8582 21.108 23.4859 22.0436 22.9035C23.2976 22.2525 24.7436 21.3715 26.2146 20.4235C29.1506 18.5235 32.1626 16.3655 33.7456 15.2935C33.9527 15.1565 34.1275 14.9762 34.2582 14.7651C34.3889 14.5539 34.4723 14.317 34.5026 14.0705C34.551 13.6048 34.4292 13.1373 34.1595 12.7545C33.958 12.4705 33.6889 12.2411 33.3766 12.087C33.0643 11.9329 32.7186 11.8588 32.3706 11.8715L32.3685 11.8705ZM32.4686 12.6405C32.675 12.6404 32.8781 12.6917 33.0597 12.7898C33.2413 12.888 33.3955 13.0298 33.5085 13.2025C33.6682 13.4281 33.7423 13.7032 33.7175 13.9785C33.7037 14.1128 33.6592 14.242 33.5874 14.3563C33.5156 14.4705 33.4185 14.5668 33.3036 14.6375C31.6976 15.7255 28.7036 17.8785 25.7866 19.7585C24.3306 20.6985 22.8956 21.5705 21.6796 22.2015C20.8424 22.6969 19.9221 23.0357 18.9636 23.2015C14.5006 23.2015 11.1806 21.5575 5.5636 22.6015V21.4485C5.55065 21.3536 5.50408 21.2665 5.43237 21.2031C5.36067 21.1396 5.26861 21.104 5.17285 21.1026C5.0771 21.1013 4.98397 21.1344 4.91052 21.1958C4.83708 21.2573 4.78816 21.343 4.77258 21.4375V24.3525H3.58557V13.3785H4.77258V16.2785C4.76315 16.3353 4.76602 16.3935 4.78113 16.449C4.79623 16.5045 4.82322 16.5562 4.86011 16.6004C4.89699 16.6446 4.94292 16.6803 4.99487 16.705C5.04682 16.7298 5.10358 16.7431 5.16113 16.744C5.21869 16.7449 5.27569 16.7333 5.32837 16.7101C5.38105 16.6869 5.4281 16.6526 5.46631 16.6096C5.50452 16.5665 5.53302 16.5157 5.5498 16.4607C5.56659 16.4056 5.5713 16.3476 5.5636 16.2905V15.3195C7.18059 14.6872 8.88444 14.3048 10.6166 14.1855C11.8049 14.1888 12.9855 14.376 14.1166 14.7405C15.1355 15.0948 16.2023 15.2921 17.2805 15.3255H17.2926L21.5646 15.1945C21.842 15.1806 22.1137 15.2774 22.3199 15.4636C22.5262 15.6497 22.6501 15.9101 22.6646 16.1875C22.6433 16.4674 22.5136 16.7279 22.3031 16.9136C22.0926 17.0992 21.8179 17.1954 21.5376 17.1815L13.4105 17.5295C13.3534 17.5226 13.2955 17.528 13.2407 17.5454C13.1859 17.5629 13.1356 17.592 13.093 17.6307C13.0505 17.6694 13.0168 17.7168 12.9943 17.7697C12.9717 17.8226 12.9608 17.8797 12.9623 17.9372C12.9638 17.9947 12.9777 18.0512 13.0031 18.1028C13.0284 18.1544 13.0646 18.2 13.1091 18.2364C13.1537 18.2727 13.2055 18.2991 13.2611 18.3136C13.3168 18.3281 13.3749 18.3305 13.4315 18.3205H13.4446L21.5696 17.9725C21.9384 17.9656 22.2979 17.8557 22.6077 17.6553C22.9174 17.455 23.165 17.1721 23.3225 16.8385L23.3625 16.8215L31.6046 12.8605C31.8726 12.7218 32.1689 12.6466 32.4706 12.6405H32.4686ZM1.27661 13.3785H2.79651V24.3585H1.27661V13.3785Z" fill="#0050A6" stroke="#0050A6" stroke-width="0.5" stroke-miterlimit="10"/>
<path fill-rule="evenodd" clip-rule="evenodd" d="M19.6043 6.09668C19.5001 6.09955 19.4012 6.14295 19.3285 6.21765C19.2559 6.29236 19.2153 6.39247 19.2154 6.49667V8.77968H16.9323C16.8367 8.79188 16.7488 8.83817 16.6846 8.91005C16.6204 8.98193 16.5844 9.07455 16.583 9.1709C16.5817 9.26725 16.6151 9.36085 16.6773 9.43448C16.7394 9.50811 16.8261 9.55682 16.9213 9.57167H19.2214V11.8547C19.2343 11.9496 19.2809 12.0367 19.3526 12.1001C19.4243 12.1636 19.5163 12.1992 19.6121 12.2006C19.7079 12.2019 19.8009 12.1688 19.8743 12.1074C19.9478 12.0459 19.9968 11.9602 20.0124 11.8657V9.57167H22.2953C22.3909 9.55947 22.4788 9.51318 22.543 9.4413C22.6072 9.36942 22.6434 9.2768 22.6447 9.18045C22.646 9.0841 22.6125 8.99052 22.5503 8.91689C22.4882 8.84325 22.4015 8.79453 22.3063 8.77968H20.0124V6.49667C20.0124 6.3923 19.9716 6.29205 19.8987 6.21732C19.8259 6.14258 19.7267 6.09929 19.6224 6.09668H19.6043Z" fill="#0050A6" stroke="#0050A6" stroke-width="0.5" stroke-miterlimit="10"/>
<path fill-rule="evenodd" clip-rule="evenodd" d="M22.8415 1.15039C22.7371 1.153 22.638 1.19629 22.5651 1.27103C22.4922 1.34576 22.4514 1.44601 22.4515 1.55038V2.70139H21.3005C21.2439 2.69256 21.186 2.69599 21.1309 2.71144C21.0757 2.72689 21.0245 2.75401 20.9808 2.79095C20.937 2.8279 20.9017 2.87381 20.8772 2.92558C20.8527 2.97736 20.8397 3.03378 20.8389 3.09105C20.8381 3.14832 20.8496 3.20509 20.8726 3.25752C20.8956 3.30996 20.9297 3.35684 20.9725 3.39499C21.0152 3.43313 21.0656 3.46166 21.1203 3.47864C21.175 3.49561 21.2327 3.50065 21.2895 3.49339H22.4515V4.64038C22.4635 4.73599 22.5097 4.82403 22.5815 4.88831C22.6533 4.95258 22.7458 4.98877 22.8422 4.99023C22.9386 4.99169 23.0323 4.95833 23.106 4.89626C23.1797 4.83418 23.2285 4.74759 23.2434 4.65239V3.49339H24.3904C24.486 3.48119 24.574 3.43488 24.6382 3.36301C24.7024 3.29113 24.7384 3.19851 24.7398 3.10216C24.7411 3.00581 24.7076 2.91222 24.6454 2.83859C24.5833 2.76496 24.4966 2.71624 24.4014 2.70139H23.2434V1.55038C23.2435 1.44584 23.2026 1.34544 23.1296 1.27068C23.0565 1.19591 22.957 1.15274 22.8525 1.15039H22.8415Z" fill="#0050A6" stroke="#0050A6" stroke-width="0.5" stroke-miterlimit="10"/>
<path fill-rule="evenodd" clip-rule="evenodd" d="M16.3669 1.15039C16.2627 1.15326 16.1638 1.19666 16.0911 1.27136C16.0185 1.34607 15.9778 1.44618 15.9778 1.55038V2.70139H14.8258C14.7303 2.71359 14.6423 2.75988 14.5782 2.83176C14.514 2.90363 14.4779 2.99626 14.4766 3.09261C14.4753 3.18895 14.5087 3.28255 14.5708 3.35619C14.633 3.42982 14.7197 3.47854 14.8149 3.49339H15.9778V4.64038C15.9684 4.69716 15.9714 4.75532 15.9865 4.81087C16.0016 4.86641 16.0285 4.91804 16.0653 4.96223C16.1022 5.00642 16.1483 5.04214 16.2002 5.06693C16.2522 5.09171 16.3088 5.10499 16.3664 5.10587C16.4239 5.10674 16.4811 5.09518 16.5337 5.07198C16.5864 5.04877 16.6335 5.01447 16.6717 4.97142C16.7099 4.92837 16.7383 4.87759 16.755 4.82253C16.7718 4.76746 16.7765 4.70943 16.7688 4.65239V3.49339H17.9169C18.0125 3.48119 18.1004 3.43488 18.1646 3.36301C18.2288 3.29113 18.2648 3.19851 18.2662 3.10216C18.2675 3.00581 18.2341 2.91222 18.1719 2.83859C18.1098 2.76496 18.0231 2.71624 17.9279 2.70139H16.7688V1.55038C16.7689 1.44601 16.7281 1.34576 16.6552 1.27103C16.5823 1.19629 16.4832 1.153 16.3788 1.15039H16.3669Z" fill="#0050A6" stroke="#0050A6" stroke-width="0.5" stroke-miterlimit="10"/>
</svg>
