<svg width="22" height="17" viewBox="0 0 22 17" fill="none" xmlns="http://www.w3.org/2000/svg">
<path d="M0.0439453 3.01807C0.0439453 2.31091 0.324764 1.6327 0.824707 1.13257C1.32465 0.632438 2.0028 0.351339 2.70996 0.351074H18.71C19.0602 0.351074 19.4069 0.419926 19.7305 0.553955C20.054 0.687984 20.348 0.884426 20.5957 1.13208C20.8434 1.37973 21.0398 1.67374 21.1738 1.99731C21.3079 2.32089 21.377 2.66783 21.377 3.01807V13.6851C21.3767 14.3922 21.0958 15.0704 20.5957 15.5703C20.0956 16.0703 19.4171 16.3511 18.71 16.3511H2.70996C2.00306 16.3505 1.32505 16.0694 0.825195 15.5696C0.325338 15.0697 0.044475 14.392 0.0439453 13.6851V3.01807ZM2.70996 1.68506C2.35643 1.68506 2.01756 1.82545 1.76758 2.07544C1.51759 2.32543 1.37695 2.66453 1.37695 3.01807V4.35107H20.0439V3.01807C20.0439 2.66453 19.9033 2.32543 19.6533 2.07544C19.4033 1.82545 19.0645 1.68506 18.7109 1.68506H2.71094H2.70996ZM20.0439 7.01807H1.37695V13.6851C1.37695 14.0386 1.51759 14.3777 1.76758 14.6277C2.01756 14.8777 2.35643 15.0181 2.70996 15.0181H18.71C19.0636 15.0181 19.4027 14.8776 19.6528 14.6277C19.903 14.3777 20.0437 14.0387 20.0439 13.6851V7.01807Z" fill="#8C8C8C"/>
<path d="M5.37696 9.68506H4.04296C3.30677 9.68506 2.70996 10.2819 2.70996 11.0181V12.3521C2.70996 13.0883 3.30677 13.6851 4.04296 13.6851H5.37696C6.11316 13.6851 6.70996 13.0883 6.70996 12.3521V11.0181C6.70996 10.2819 6.11316 9.68506 5.37696 9.68506Z" fill="#8C8C8C"/>
</svg>
