<svg width="239" height="40" viewBox="0 0 239 40" fill="none" xmlns="http://www.w3.org/2000/svg">
<path d="M75.5184 21.9016C75.4292 22.0578 75.3336 22.1725 75.2348 22.2426C75.136 22.3127 75.0085 22.3477 74.8619 22.3477C74.7058 22.3477 74.5369 22.2904 74.3553 22.1757C74.1736 22.061 73.9569 21.9335 73.702 21.7901C73.4503 21.6499 73.1539 21.5192 72.8161 21.4045C72.4784 21.2898 72.08 21.2324 71.618 21.2324C71.2005 21.2324 70.8372 21.2834 70.5249 21.3822C70.2127 21.4842 69.9514 21.6212 69.7379 21.7997C69.5275 21.9781 69.3682 22.1916 69.263 22.4402C69.1579 22.6887 69.1069 22.9628 69.1069 23.2591C69.1069 23.6383 69.2121 23.9538 69.4256 24.2056C69.6359 24.4573 69.9163 24.674 70.2668 24.8524C70.6174 25.0309 71.0125 25.1902 71.4586 25.3304C71.9048 25.4706 72.3604 25.6236 72.8289 25.7829C73.2973 25.9423 73.753 26.1271 74.1991 26.3406C74.6453 26.5509 75.0436 26.8186 75.3909 27.1436C75.7415 27.4655 76.0219 27.8638 76.2322 28.329C76.4425 28.7943 76.5509 29.3647 76.5509 30.0339C76.5509 30.7636 76.4266 31.4424 76.178 32.0797C75.9295 32.7138 75.5662 33.2683 75.085 33.7399C74.607 34.2115 74.0207 34.5844 73.3292 34.8552C72.6377 35.1261 71.8474 35.2631 70.9551 35.2631C70.4421 35.2631 69.9386 35.2121 69.4383 35.1134C68.9412 35.0114 68.4632 34.8712 68.0075 34.6832C67.5518 34.4983 67.1216 34.2753 66.7201 34.014C66.3186 33.7527 65.9617 33.4627 65.6494 33.144L66.5289 31.7069C66.6022 31.6017 66.701 31.5157 66.8189 31.4456C66.9368 31.3755 67.0643 31.3404 67.1981 31.3404C67.3829 31.3404 67.5837 31.4169 67.8004 31.5698C68.0171 31.7228 68.272 31.8917 68.5684 32.0765C68.8647 32.2613 69.2121 32.4302 69.6104 32.5832C70.0087 32.7361 70.4867 32.8126 71.0412 32.8126C71.8952 32.8126 72.558 32.6087 73.0265 32.204C73.4949 31.7993 73.7275 31.2161 73.7275 30.4609C73.7275 30.0371 73.6223 29.6929 73.4088 29.4252C73.1985 29.1576 72.9181 28.9345 72.5676 28.7497C72.217 28.568 71.8219 28.4151 71.3758 28.2876C70.9296 28.1601 70.4772 28.0231 70.0151 27.8765C69.553 27.7268 69.1005 27.5483 68.6544 27.3412C68.2083 27.1341 67.8099 26.8632 67.4626 26.5286C67.1121 26.194 66.8317 25.7766 66.6213 25.2763C66.411 24.776 66.3027 24.1546 66.3027 23.4216C66.3027 22.8353 66.4206 22.2617 66.6532 21.7041C66.8858 21.1464 67.2268 20.6525 67.6729 20.2223C68.119 19.7921 68.6671 19.4447 69.3236 19.1866C69.9768 18.9253 70.7289 18.7979 71.5765 18.7979C72.5262 18.7979 73.4057 18.9476 74.2055 19.244C75.0085 19.5403 75.6905 19.9578 76.2577 20.4931L75.5184 21.9016Z" fill="#0050A6"/>
<path d="M92.7486 18.9697V35.0845H89.7405V28.042H82.1722V35.0845H79.1641V18.9697H82.1722V25.9006H89.7405V18.9697H92.7486Z" fill="#0050A6"/>
<path d="M99.348 35.0845H96.3398V18.9697H99.348V35.0845Z" fill="#0050A6"/>
<path d="M108.188 18.9697C109.265 18.9697 110.199 19.0972 110.986 19.3489C111.773 19.6007 112.423 19.9544 112.936 20.4069C113.449 20.8594 113.828 21.4011 114.08 22.0353C114.328 22.6662 114.453 23.3577 114.453 24.1098C114.453 24.8905 114.322 25.6043 114.064 26.2543C113.803 26.9044 113.414 27.4621 112.894 27.9305C112.375 28.3989 111.722 28.7622 110.938 29.0235C110.154 29.2848 109.239 29.4123 108.191 29.4123H105.951V35.0845H102.952V18.9697H108.188ZM108.188 27.0701C108.739 27.0701 109.217 27 109.625 26.863C110.033 26.726 110.374 26.5284 110.645 26.2735C110.916 26.0185 111.119 25.7063 111.253 25.3366C111.387 24.9701 111.454 24.5591 111.454 24.1066C111.454 23.6764 111.387 23.2844 111.253 22.9371C111.119 22.5865 110.919 22.2902 110.651 22.0448C110.383 21.7994 110.046 21.6114 109.638 21.4808C109.23 21.3501 108.745 21.2864 108.188 21.2864H105.948V27.0701H108.188Z" fill="#0050A6"/>
<path d="M132.963 38.2387H130.49C130.133 38.2387 129.812 38.1909 129.525 38.0953C129.238 37.9997 128.977 37.8213 128.738 37.56L126.373 34.9533C125.994 35.0585 125.605 35.135 125.21 35.1859C124.812 35.2369 124.398 35.2624 123.967 35.2624C122.75 35.2624 121.638 35.0553 120.634 34.6442C119.63 34.2331 118.77 33.6564 118.053 32.9234C117.336 32.1873 116.782 31.3174 116.386 30.3104C115.991 29.3034 115.797 28.2104 115.797 27.0282C115.797 25.8459 115.994 24.7529 116.386 23.746C116.782 22.739 117.336 21.869 118.053 21.1329C118.77 20.3968 119.63 19.8232 120.634 19.4121C121.638 19.0011 122.747 18.7939 123.967 18.7939C124.783 18.7939 125.554 18.8895 126.274 19.0776C126.995 19.2656 127.657 19.5332 128.26 19.8806C128.862 20.2247 129.401 20.6454 129.882 21.1393C130.36 21.6332 130.768 22.1845 131.102 22.7932C131.437 23.4018 131.692 24.0646 131.867 24.7784C132.042 25.4922 132.128 26.2411 132.128 27.0314C132.128 27.7515 132.055 28.4399 131.905 29.0995C131.755 29.7559 131.542 30.3709 131.265 30.9445C130.988 31.5181 130.647 32.0407 130.245 32.5219C129.844 32.9999 129.388 33.4237 128.875 33.787L132.963 38.2387ZM118.862 27.025C118.862 27.9077 118.98 28.7012 119.219 29.4054C119.458 30.1065 119.796 30.7024 120.239 31.1899C120.682 31.6775 121.217 32.0503 121.845 32.3084C122.473 32.5697 123.18 32.6972 123.967 32.6972C124.754 32.6972 125.462 32.5665 126.09 32.3084C126.717 32.0471 127.25 31.6743 127.689 31.1899C128.129 30.7024 128.467 30.1096 128.703 29.4054C128.942 28.7043 129.06 27.9109 129.06 27.025C129.06 26.1423 128.942 25.3488 128.703 24.6446C128.464 23.9435 128.126 23.3476 127.689 22.8569C127.25 22.3662 126.717 21.9901 126.09 21.732C125.462 21.4707 124.754 21.3432 123.967 21.3432C123.18 21.3432 122.473 21.4739 121.845 21.732C121.217 21.9933 120.682 22.3662 120.239 22.8569C119.796 23.3476 119.458 23.9435 119.219 24.6446C118.98 25.3488 118.862 26.1423 118.862 27.025Z" fill="#0050A6"/>
<path d="M141.243 32.6658C141.823 32.6658 142.342 32.5702 142.798 32.3759C143.253 32.1815 143.639 31.9106 143.951 31.5633C144.264 31.2127 144.503 30.7921 144.671 30.2918C144.837 29.7947 144.923 29.237 144.923 28.6188V18.9697H147.922V28.622C147.922 29.5812 147.769 30.4671 147.46 31.2797C147.151 32.0922 146.708 32.7965 146.134 33.386C145.557 33.9755 144.859 34.4376 144.034 34.769C143.209 35.1004 142.281 35.2661 141.249 35.2661C140.21 35.2661 139.276 35.1004 138.451 34.769C137.626 34.4376 136.925 33.9787 136.351 33.386C135.774 32.7965 135.335 32.0922 135.026 31.2797C134.716 30.4671 134.563 29.5812 134.563 28.622V18.9697H137.562V28.6093C137.562 29.2275 137.645 29.7819 137.814 30.2822C137.98 30.7794 138.222 31.2064 138.537 31.5569C138.853 31.9106 139.238 32.1815 139.697 32.3759C140.146 32.5702 140.663 32.6658 141.243 32.6658Z" fill="#0050A6"/>
<path d="M166.678 27.0252C166.678 28.2075 166.483 29.3005 166.092 30.3075C165.703 31.3144 165.148 32.1844 164.438 32.9205C163.724 33.6566 162.867 34.2302 161.863 34.6413C160.859 35.0524 159.744 35.2595 158.52 35.2595C157.303 35.2595 156.191 35.0524 155.187 34.6413C154.183 34.2302 153.323 33.6534 152.606 32.9205C151.889 32.1844 151.334 31.3144 150.939 30.3075C150.544 29.3005 150.35 28.2075 150.35 27.0252C150.35 25.843 150.547 24.75 150.939 23.743C151.334 22.7361 151.889 21.8661 152.606 21.13C153.323 20.3939 154.183 19.8203 155.187 19.4092C156.191 18.9981 157.3 18.791 158.52 18.791C159.336 18.791 160.107 18.8866 160.827 19.0746C161.547 19.2626 162.21 19.5303 162.812 19.8777C163.415 20.2218 163.956 20.6424 164.434 21.1364C164.912 21.6303 165.32 22.1816 165.655 22.7902C165.99 23.3989 166.244 24.0617 166.42 24.7755C166.589 25.4893 166.678 26.2382 166.678 27.0252ZM163.612 27.0252C163.612 26.1426 163.494 25.3491 163.255 24.6448C163.016 23.9438 162.679 23.3479 162.242 22.8571C161.802 22.3664 161.27 21.9904 160.642 21.7323C160.015 21.471 159.307 21.3435 158.52 21.3435C157.733 21.3435 157.026 21.4742 156.398 21.7323C155.77 21.9936 155.235 22.3664 154.792 22.8571C154.349 23.3479 154.011 23.9438 153.772 24.6448C153.533 25.3459 153.415 26.1394 153.415 27.0252C153.415 27.9079 153.533 28.7014 153.772 29.4057C154.011 30.1067 154.349 30.7026 154.792 31.1902C155.235 31.6777 155.77 32.0506 156.398 32.3087C157.026 32.57 157.733 32.6974 158.52 32.6974C159.307 32.6974 160.015 32.5668 160.642 32.3087C161.27 32.0474 161.802 31.6745 162.242 31.1902C162.682 30.7026 163.02 30.1099 163.255 29.4057C163.494 28.7046 163.612 27.9111 163.612 27.0252Z" fill="#0050A6"/>
<path d="M180.387 31.2858C180.55 31.2858 180.696 31.3495 180.82 31.4738L182.003 32.7548C181.349 33.5642 180.543 34.1856 179.59 34.6158C178.634 35.046 177.49 35.2627 176.152 35.2627C174.957 35.2627 173.88 35.0587 172.924 34.6508C171.968 34.243 171.152 33.6725 170.477 32.946C169.801 32.2163 169.282 31.3495 168.922 30.3393C168.562 29.3292 168.38 28.2266 168.38 27.0284C168.38 25.8175 168.574 24.7086 168.96 23.7016C169.345 22.6946 169.89 21.8279 170.591 21.0981C171.292 20.3684 172.131 19.8044 173.106 19.3997C174.078 18.995 175.158 18.791 176.337 18.791C177.51 18.791 178.552 18.9854 179.463 19.371C180.374 19.7566 181.149 20.2632 181.786 20.8878L180.782 22.2804C180.722 22.3696 180.645 22.4461 180.553 22.513C180.46 22.5799 180.333 22.6118 180.167 22.6118C180.056 22.6118 179.941 22.5799 179.823 22.5162C179.705 22.4524 179.574 22.376 179.434 22.2836C179.294 22.1911 179.128 22.0892 178.944 21.9776C178.759 21.8661 178.542 21.7641 178.297 21.6717C178.051 21.5793 177.768 21.4996 177.443 21.4391C177.121 21.3754 176.745 21.3435 176.324 21.3435C175.604 21.3435 174.944 21.471 174.345 21.7291C173.746 21.984 173.233 22.3568 172.803 22.8444C172.373 23.332 172.038 23.9247 171.799 24.6289C171.56 25.33 171.442 26.133 171.442 27.0316C171.442 27.9398 171.57 28.7428 171.828 29.4503C172.083 30.1577 172.43 30.7504 172.87 31.2348C173.31 31.7191 173.826 32.0888 174.419 32.3437C175.014 32.5987 175.652 32.7293 176.337 32.7293C176.745 32.7293 177.114 32.707 177.446 32.6624C177.777 32.6178 178.08 32.5477 178.36 32.4521C178.638 32.3565 178.902 32.2322 179.151 32.0792C179.399 31.9263 179.648 31.7383 179.893 31.5152C179.966 31.4483 180.046 31.3941 180.126 31.3527C180.212 31.3049 180.298 31.2858 180.387 31.2858Z" fill="#0050A6"/>
<path d="M195.319 21.433H190.46V35.0877H187.461V21.433H182.602V18.9697H195.319V21.433Z" fill="#0050A6"/>
<path d="M200.447 21.3533V25.821H206.087V28.1281H200.447V32.6881H207.601V35.0845H197.436V18.9697H207.601V21.3533H200.447Z" fill="#0050A6"/>
<path d="M209.076 34.1088C209.076 33.9623 209.105 33.8189 209.159 33.685C209.213 33.5512 209.29 33.4365 209.385 33.3409C209.481 33.2453 209.596 33.1688 209.729 33.1114C209.863 33.0541 210.007 33.0254 210.16 33.0254C210.313 33.0254 210.456 33.0541 210.587 33.1114C210.717 33.1688 210.832 33.2453 210.931 33.3409C211.03 33.4365 211.106 33.5512 211.163 33.685C211.221 33.8189 211.249 33.9591 211.249 34.1088C211.249 34.2618 211.221 34.4052 211.163 34.5358C211.106 34.6665 211.03 34.7812 210.931 34.8768C210.832 34.9724 210.717 35.0489 210.587 35.1031C210.456 35.1572 210.313 35.1859 210.16 35.1859C210.007 35.1859 209.863 35.1572 209.729 35.1031C209.596 35.0489 209.481 34.9724 209.385 34.8768C209.29 34.7812 209.213 34.6665 209.159 34.5358C209.105 34.4052 209.076 34.2618 209.076 34.1088Z" fill="#A91116"/>
<path d="M218.005 29.288C217.951 29.3549 217.9 29.4059 217.852 29.4441C217.801 29.4823 217.728 29.5015 217.632 29.5015C217.54 29.5015 217.454 29.4728 217.368 29.4186C217.282 29.3644 217.18 29.3007 217.059 29.2338C216.938 29.1637 216.797 29.1031 216.632 29.049C216.466 28.9948 216.262 28.9661 216.02 28.9661C215.711 28.9661 215.437 29.0235 215.204 29.135C214.971 29.2465 214.774 29.409 214.621 29.6194C214.465 29.8297 214.35 30.0846 214.274 30.381C214.197 30.6805 214.159 31.0183 214.159 31.3943C214.159 31.7863 214.2 32.1336 214.283 32.4395C214.366 32.7454 214.487 33.0036 214.646 33.2107C214.803 33.4178 214.994 33.5771 215.22 33.6823C215.443 33.7907 215.698 33.8448 215.978 33.8448C216.259 33.8448 216.488 33.8098 216.664 33.7397C216.839 33.6696 216.985 33.5931 217.103 33.5102C217.221 33.4274 217.326 33.3509 217.416 33.2808C217.505 33.2107 217.604 33.1756 217.712 33.1756C217.855 33.1756 217.964 33.2298 218.034 33.3413L218.544 33.985C218.346 34.2145 218.136 34.4057 217.906 34.5618C217.677 34.718 217.441 34.8422 217.193 34.9347C216.947 35.0271 216.692 35.094 216.434 35.1322C216.173 35.1705 215.915 35.1896 215.657 35.1896C215.204 35.1896 214.774 35.1035 214.372 34.9347C213.971 34.7658 213.62 34.5172 213.321 34.1922C213.021 33.8671 212.782 33.4688 212.607 33.0004C212.432 32.5288 212.346 31.9934 212.346 31.3911C212.346 30.8526 212.422 30.3523 212.578 29.8902C212.734 29.4282 212.961 29.0298 213.263 28.6952C213.563 28.3575 213.936 28.0962 214.382 27.905C214.825 27.7138 215.338 27.6182 215.915 27.6182C216.463 27.6182 216.944 27.7074 217.358 27.8827C217.773 28.0579 218.142 28.3128 218.474 28.6411L218.005 29.288Z" fill="#A91116"/>
<path d="M222.769 27.6182C223.314 27.6182 223.808 27.7074 224.254 27.8827C224.7 28.0579 225.082 28.3097 225.401 28.6347C225.72 28.9597 225.962 29.3549 226.134 29.8233C226.306 30.2917 226.392 30.8143 226.392 31.3911C226.392 31.9743 226.306 32.5001 226.134 32.9685C225.962 33.4369 225.716 33.8353 225.401 34.1635C225.082 34.4917 224.7 34.7466 224.254 34.9219C223.808 35.0972 223.311 35.1864 222.769 35.1864C222.221 35.1864 221.72 35.0972 221.271 34.9219C220.822 34.7466 220.439 34.4917 220.121 34.1635C219.802 33.8353 219.557 33.4338 219.381 32.9685C219.206 32.5001 219.12 31.9743 219.12 31.3911C219.12 30.8143 219.206 30.2917 219.381 29.8233C219.557 29.3549 219.802 28.9597 220.121 28.6347C220.439 28.3097 220.822 28.0579 221.271 27.8827C221.72 27.7074 222.221 27.6182 222.769 27.6182ZM222.769 33.8321C223.381 33.8321 223.833 33.6281 224.126 33.2171C224.419 32.806 224.566 32.2037 224.566 31.4102C224.566 30.6168 224.419 30.0145 224.126 29.5971C223.833 29.1828 223.381 28.9725 222.769 28.9725C222.147 28.9725 221.689 29.1828 221.389 29.6002C221.089 30.0177 220.94 30.62 220.94 31.4102C220.94 32.2005 221.089 32.7996 221.389 33.2107C221.689 33.625 222.147 33.8321 222.769 33.8321Z" fill="#A91116"/>
<path d="M227.75 35.0847V27.7331H228.83C229.06 27.7331 229.209 27.8415 229.283 28.055L229.397 28.5999C229.525 28.4565 229.662 28.3259 229.802 28.2048C229.942 28.0869 230.092 27.9817 230.255 27.8957C230.414 27.8096 230.586 27.7427 230.771 27.6917C230.956 27.6407 231.157 27.6152 231.376 27.6152C231.838 27.6152 232.221 27.7395 232.52 27.9913C232.82 28.243 233.043 28.5744 233.19 28.9919C233.304 28.7497 233.448 28.5394 233.62 28.3641C233.792 28.1888 233.98 28.0486 234.187 27.9371C234.391 27.8287 234.611 27.7459 234.843 27.6949C235.076 27.6439 235.309 27.6152 235.541 27.6152C235.946 27.6152 236.309 27.679 236.625 27.8001C236.94 27.9243 237.205 28.106 237.421 28.345C237.635 28.584 237.801 28.874 237.912 29.2181C238.024 29.5623 238.081 29.9574 238.081 30.4003V35.0783H236.312V30.4067C236.312 29.9383 236.21 29.5878 236.003 29.3488C235.796 29.1098 235.497 28.995 235.102 28.995C234.92 28.995 234.751 29.0269 234.598 29.0875C234.442 29.1512 234.308 29.2404 234.19 29.3551C234.072 29.473 233.98 29.6196 233.913 29.7949C233.846 29.9701 233.811 30.1741 233.811 30.4035V35.0815H232.033V30.4067C232.033 29.916 231.934 29.5559 231.736 29.3328C231.539 29.1098 231.249 28.995 230.867 28.995C230.608 28.995 230.369 29.0588 230.146 29.1862C229.923 29.3137 229.716 29.4858 229.528 29.7057V35.0879H227.75V35.0847Z" fill="#A91116"/>
<path d="M29.3313 6.18247H13.9814C13.1879 6.18247 12.541 5.53877 12.541 4.74211C12.541 3.94546 13.1847 3.30176 13.9814 3.30176H29.3313C30.1248 3.30176 30.7717 3.94546 30.7717 4.74211C30.7717 5.53877 30.1248 6.18247 29.3313 6.18247Z" fill="#A91116"/>
<path d="M26.138 18.2909H10.788C9.99454 18.2909 9.34766 17.6472 9.34766 16.8505C9.34766 16.057 9.99135 15.4102 10.788 15.4102H26.138C26.9314 15.4102 27.5783 16.0539 27.5783 16.8505C27.5783 17.644 26.9346 18.2909 26.138 18.2909Z" fill="#A91116"/>
<path d="M23.0314 12.1893H4.79752C4.00405 12.1893 3.36035 11.5456 3.36035 10.7489C3.36035 9.95229 4.00405 9.30859 4.79752 9.30859H23.0314C23.8248 9.30859 24.4685 9.95229 24.4685 10.7489C24.4685 11.5456 23.8248 12.1893 23.0314 12.1893Z" fill="#A91116"/>
<path d="M26.3774 36.3198C27.9033 34.2875 27.6113 31.4921 25.7254 30.0762C23.8395 28.6603 21.0737 29.16 19.5479 31.1923C18.0221 33.2246 18.314 36.0199 20.1999 37.4358C22.0859 38.8517 24.8516 38.3521 26.3774 36.3198Z" fill="#0050A6"/>
<path d="M72.1023 0H35.9819C35.5453 0 35.1629 0.296356 35.0514 0.720177L30.1313 19.7857C29.8954 20.6971 30.5838 21.583 31.5238 21.583H49.9998C50.7933 21.583 51.4402 22.2267 51.4402 23.0234C51.4402 23.8168 50.7965 24.4637 49.9998 24.4637H3.07682C2.65619 24.4637 2.28335 24.7378 2.15907 25.1393L0.0654605 31.9204C-0.221336 32.8445 0.470162 33.7846 1.4389 33.7846H17.149C17.2382 31.9841 18.1209 30.2028 19.6855 29.0397C20.7498 28.2494 21.9862 27.832 23.2673 27.832C25.1028 27.832 26.8044 28.7242 27.8178 30.2219C28.5411 31.2895 28.8407 32.5418 28.7642 33.7846H37.2311C37.3203 31.9841 38.203 30.2028 39.7708 29.0397C40.8351 28.2494 42.0715 27.832 43.3526 27.832C45.188 27.832 46.8897 28.7242 47.9031 30.2219C48.6264 31.2895 48.9228 32.5418 48.8495 33.7846H57.294C57.7274 33.7846 58.1066 33.4946 58.2213 33.074L63.3167 14.0753C63.5621 13.1608 62.8738 12.2621 61.9274 12.2621H43.5724C42.779 12.2621 42.1321 11.6184 42.1321 10.8218C42.1321 10.0283 42.7758 9.38142 43.5724 9.38142H70.5631C70.9901 9.38142 71.3662 9.101 71.4841 8.68992L73.4821 1.83868C73.7529 0.920934 73.0614 0 72.1023 0Z" fill="#0050A6"/>
<path d="M46.4614 36.3188C47.9872 34.2865 47.6953 31.4912 45.8094 30.0752C43.9235 28.6593 41.1577 29.159 39.6319 31.1913C38.1061 33.2236 38.398 36.0189 40.2839 37.4348C42.1699 38.8508 44.9356 38.3511 46.4614 36.3188Z" fill="#0050A6"/>
</svg>
